…
mean(ncbirths$weight)
```

    ## [1] 7.101

``` r
#7.101
```

``` r
ncbirths_white %>%
  count(weight)
```

    ## # A tibble: 117 × 2
    ##    weight     n
    ##     <dbl> <int>
    ##  1   1        1
    ##  2   1.31     1
    ##  3   1.5      1
    ##  4   1.56     1
    ##  5   1.63     1
    ##  6   1.69     1
    ##  7   2.19     1
    ##  8   2.25     2
    ##  9   2.5      1
    ## 10   2.69     2
    ## # … with 107 more rows
…
